{
  "frames": {
    "bonfire.png": {
      "frame": {
        "x": 0,
        "y": 0,
        "w": 361,
        "h": 259
      },
      "rotated": false,
      "trimmed": false,
      "spriteSourceSize": {
        "x": 0,
        "y": 0,
        "w": 361,
        "h": 259
      },
      "sourceSize": {
        "w": 361,
        "h": 259
      },
      "pivot": {
        "x": 0.5,
        "y": 0.5
      }
    },
    "button.png": {
      "frame": {
        "x": 361,
        "y": 0,
        "w": 319,
        "h": 115
      },
      "rotated": false,
      "trimmed": false,
      "spriteSourceSize": {
        "x": 0,
        "y": 0,
        "w": 319,
        "h": 115
      },
      "sourceSize": {
        "w": 319,
        "h": 115
      },
      "pivot": {
        "x": 0.5,
        "y": 0.5
      }
    },
    "happy.png": {
      "frame": {
        "x": 680,
        "y": 0,
        "w": 256,
        "h": 257
      },
      "rotated": true,
      "trimmed": false,
      "spriteSourceSize": {
        "x": 0,
        "y": 0,
        "w": 256,
        "h": 257
      },
      "sourceSize": {
        "w": 256,
        "h": 257
      },
      "pivot": {
        "x": 0.5,
        "y": 0.5
      }
    },
    "coin.png": {
      "frame": {
        "x": 361,
        "y": 115,
        "w": 256,
        "h": 256
      },
      "rotated": false,
      "trimmed": false,
      "spriteSourceSize": {
        "x": 0,
        "y": 0,
        "w": 256,
        "h": 256
      },
      "sourceSize": {
        "w": 256,
        "h": 256
      },
      "pivot": {
        "x": 0.5,
        "y": 0.5
      }
    },
    "fire_particle_1.png": {
      "frame": {
        "x": 617,
        "y": 115,
        "w": 108,
        "h": 50
      },
      "rotated": true,
      "trimmed": true,
      "spriteSourceSize": {
        "x": 150,
        "y": 1,
        "w": 108,
        "h": 50
      },
      "sourceSize": {
        "w": 258,
        "h": 51
      },
      "pivot": {
        "x": 0.5,
        "y": 0.5
      }
    },
    "fire_particle_0.png": {
      "frame": {
        "x": 617,
        "y": 223,
        "w": 44,
        "h": 44
      },
      "rotated": false,
      "trimmed": false,
      "spriteSourceSize": {
        "x": 0,
        "y": 0,
        "w": 44,
        "h": 44
      },
      "sourceSize": {
        "w": 44,
        "h": 44
      },
      "pivot": {
        "x": 0.5,
        "y": 0.5
      }
    },
    "fullscreen.png": {
      "frame": {
        "x": 0,
        "y": 259,
        "w": 256,
        "h": 256
      },
      "rotated": false,
      "trimmed": false,
      "spriteSourceSize": {
        "x": 0,
        "y": 0,
        "w": 256,
        "h": 256
      },
      "sourceSize": {
        "w": 256,
        "h": 256
      },
      "pivot": {
        "x": 0.5,
        "y": 0.5
      }
    },
    "back.png": {
      "frame": {
        "x": 937,
        "y": 0,
        "w": 253,
        "h": 256
      },
      "rotated": true,
      "trimmed": false,
      "spriteSourceSize": {
        "x": 0,
        "y": 0,
        "w": 253,
        "h": 256
      },
      "sourceSize": {
        "w": 253,
        "h": 256
      },
      "pivot": {
        "x": 0.5,
        "y": 0.5
      }
    },
    "unicorn.png": {
      "frame": {
        "x": 1193,
        "y": 0,
        "w": 216,
        "h": 256
      },
      "rotated": true,
      "trimmed": false,
      "spriteSourceSize": {
        "x": 0,
        "y": 0,
        "w": 216,
        "h": 256
      },
      "sourceSize": {
        "w": 216,
        "h": 256
      },
      "pivot": {
        "x": 0.5,
        "y": 0.5
      }
    },
    "poker_card.png": {
      "frame": {
        "x": 1449,
        "y": 0,
        "w": 195,
        "h": 256
      },
      "rotated": true,
      "trimmed": false,
      "spriteSourceSize": {
        "x": 0,
        "y": 0,
        "w": 195,
        "h": 256
      },
      "sourceSize": {
        "w": 195,
        "h": 256
      },
      "pivot": {
        "x": 0.5,
        "y": 0.5
      }
    },
    "elsa.png": {
      "frame": {
        "x": 1705,
        "y": 0,
        "w": 156,
        "h": 182
      },
      "rotated": true,
      "trimmed": false,
      "spriteSourceSize": {
        "x": 0,
        "y": 0,
        "w": 156,
        "h": 182
      },
      "sourceSize": {
        "w": 156,
        "h": 182
      },
      "pivot": {
        "x": 0.5,
        "y": 0.5
      }
    }
  },
  "meta": {
    "app": "http://free-tex-packer.com",
    "version": "0.6.6",
    "image": "game_assets.png",
    "format": "RGBA8888",
    "size": {
      "w": 2048,
      "h": 1024
    },
    "scale": 1
  }
}